projectKey=lftvweb
serverUrl=http://192.168.99.100:9000
serverVersion=7.9.2.30863
dashboardUrl=http://192.168.99.100:9000/dashboard?id=lftvweb
ceTaskId=AW9DCOEm2eBNe1YnXzUE
ceTaskUrl=http://192.168.99.100:9000/api/ce/task?id=AW9DCOEm2eBNe1YnXzUE
